/*
This file is part of DSGOV.BR - Webcomponents.

DSGOV.BR - Webcomponents is free software: you can redistribute it and/or modify
it under the terms of the GNU Lesser General Public License as published by
the Free Software Foundation, either version 3 of the License, or
at your option) any later version.

DSGOV.BR - Webcomponents is distributed in the hope that it will be useful,
but WITHOUT ANY WARRANTY; without even the implied warranty of
MERCHANTABILITY or FITNESS FOR A PARTICULAR PURPOSE.  See the
GNU Lesser General Public License for more details.

You should have received a copy of the GNU Lesser General Public License
along with DSGOV.BR - Webcomponents.  If not, see <https://www.gnu.org/licenses/>6.

Copyright 2021 Serpro.
*/
// Jest Snapshot v1, https://goo.gl/fbAQLP

exports[`br-message feedback has the expected html structure - snapshot 1`] = `
<div>
  <!---->
   
  <p>
    <span
      class="feedback info"
      role="alert"
    >
      <i
        aria-hidden="true"
        class="fas fa-info-circle"
      />
       Texto da mensagem.
    </span>
  </p>
</div>
`;

exports[`br-message message has the expected html structure - snapshot 1`] = `
<div>
  <div
    class="br-message info"
    role="alert"
  >
    <div
      class="icon"
    >
      <i
        aria-hidden="true"
        class="fas fa-info-circle fa-lg"
      />
    </div>
     
    <div
      class="content"
    >
      <strong>
        Titulo da mensagem
      </strong>
       
      <br />
       Texto da mensagem.
    </div>
     
    <div
      class="close"
    >
      <button
        aria-label="Fechar"
        class="br-button circle small"
        type="button"
      >
        <i
          aria-hidden="true"
          class="fas fa-times"
        />
      </button>
    </div>
  </div>
   
  <!---->
</div>
`;
