/*
This file is part of DSGOV.BR - Webcomponents.

DSGOV.BR - Webcomponents is free software: you can redistribute it and/or modify
it under the terms of the GNU Lesser General Public License as published by
the Free Software Foundation, either version 3 of the License, or
at your option) any later version.

DSGOV.BR - Webcomponents is distributed in the hope that it will be useful,
but WITHOUT ANY WARRANTY; without even the implied warranty of
MERCHANTABILITY or FITNESS FOR A PARTICULAR PURPOSE.  See the
GNU Lesser General Public License for more details.

You should have received a copy of the GNU Lesser General Public License
along with DSGOV.BR - Webcomponents.  If not, see <https://www.gnu.org/licenses/>6.

Copyright 2021 Serpro.
*/
// Jest Snapshot v1, https://goo.gl/fbAQLP

exports[`Header it renders BrHeaderActionFunction 1`] = `
<div
  class="align-items-center br-item"
>
  <br-button-stub
    circle="true"
    density="small"
    icon="fa-comment"
  >
    <span
      class="text"
    >

    </span>
  </br-button-stub>
</div>
`;

exports[`Header it renders BrHeaderActionLink 1`] = `
<a
  class="br-item"
  href="href"
>
  <div>
    Título do link
  </div>
</a>
`;

exports[`Header it renders BrHeaderActionLogin 1`] = `
<div
  class="header-login"
>
  <div
    class="header-sign-in"
  >
    <br-button-stub
      class="sign-in"
      data-trigger="login"
      density="small"
      icon="user"
    />
  </div>

  <!---->
</div>
`;

exports[`Header it renders BrHeaderActionSearch 1`] = `
<div
  class="header-search-trigger"
>
  <br-button-stub
    aria-label="Abrir Busca"
    circle="true"
    data-target=".header-search"
    data-toggle="search"
    density="middle"
    icon="fa-search"
  />
</div>
`;

exports[`Header it renders BrHeaderLogo 1`] = `
<div
  class="header-logo"
>
  <img
    alt="logo"
    class="medium"
    src="https://cdn.dsgovserprodesign.estaleiro.serpro.gov.br/design-system/images/logo-positive.png"
  />

  <span
    class="br-divider vertical mx-half mx-sm-1"
  />

  <div
    class="sign"
  >
    Assinatura da Empresa
  </div>
</div>
`;

exports[`Header it renders BrHeaderMenu 1`] = `
<div
  class="header-menu-trigger"
>
  <br-button-stub
    aria-label="Menu"
    circle="true"
    data-target="#navigation"
    data-toggle="menu"
    density="small"
    icon="bars"
  />
</div>
`;

exports[`Header it renders BrHeaderTitle 1`] = `
<div
  class="header-info"
>
  <div
    class="header-title"
  >
    Título do Header
  </div>

  <div
    class="header-subtitle"
  >
    Subtítulo do Header
  </div>
</div>
`;
